{
  "unpublishedPage": {
    "name": "Page2",
    "slug": "page2",
    "layouts": [
      {
        "viewMode": false,
        "dsl": {
          "widgetName": "MainContainer",
          "backgroundColor": "none",
          "rightColumn": 1224,
          "snapColumns": 64,
          "detachFromLayout": true,
          "widgetId": "0",
          "topRow": 0,
          "bottomRow": 700,
          "containerStyle": "none",
          "snapRows": 70,
          "parentRowSpace": 1,
          "type": "CANVAS_WIDGET",
          "canExtend": true,
          "version": 53,
          "minHeight": 710,
          "parentColumnSpace": 1,
          "dynamicBindingPathList": [],
          "leftColumn": 0,
          "children": []
        },
        "layoutOnLoadActions": [],
        "validOnPageLoadActions": true,
        "id": "Page2",
        "deleted": false,
        "policies": [],
        "userPermissions": []
      }
    ],
    "userPermissions": [],
    "policies": []
  },
  "deleted": false,
  "policies": [],
  "gitSyncId": "61f234190dcb6f75e86b5e51_623aa7131e86e21997c84476"
}